<?xml version="1.0" encoding="UTF-8"?>
<svg width="34px" height="34px" viewBox="0 0 34 34" version="1.1" xmlns="http://www.w3.org/2000/svg" xmlns:xlink="http://www.w3.org/1999/xlink">
    <!-- Generator: sketchtool 41.2 (35397) - http://www.bohemiancoding.com/sketch -->
    <title>8C681916-15DF-4A89-A828-9A09A69FB4BF</title>
    <desc>Created with sketchtool.</desc>
    <defs></defs>
    <g id="Main" stroke="none" stroke-width="1" fill="none" fill-rule="evenodd">
        <g id="Main-Desktop-1440" transform="translate(-1280.000000, -110.000000)">
            <g id="Top">
                <g id="Social" transform="translate(1144.000000, 110.000000)">
                    <g id="Twitter" transform="translate(136.000000, 0.000000)">
                        <g id="Group-7">
                            <polygon id="Fill-13" fill="#85C1DD" points="0 34 34 34 34 0 0 0"></polygon>
                            <path d="M23,13.3015162 C22.555904,13.5262554 22.083958,13.6713502 21.5837855,13.738772 C22.0933668,13.3949604 22.4847734,12.8536148 22.6699388,12.2050253 C22.1931002,12.5212373 21.665454,12.747948 21.1031833,12.8800315 C20.6557002,12.3378974 20.0136428,12 19.3076055,12 C17.9478438,12 16.8455073,13.24198 16.8455073,14.7773038 C16.8455073,14.9929747 16.8669594,15.2062798 16.9079818,15.406968 C14.8655167,15.2965698 13.0488631,14.1866734 11.8339972,12.5098032 C11.6228634,12.9186709 11.5020543,13.3949604 11.5020543,13.9055522 C11.5020543,14.8668053 11.9359887,15.7219972 12.5976164,16.2124807 C12.1934138,16.1951324 11.8136741,16.0772429 11.4821076,15.867092 L11.4821076,15.9053371 C11.4821076,17.2478583 12.3307825,18.3687946 13.4568292,18.6278361 C13.2505881,18.6909208 13.0326799,18.7197032 12.8064921,18.7197032 C12.648424,18.7197032 12.4982594,18.7082691 12.346213,18.6704183 C12.6582092,19.7775548 13.5682296,20.5814904 14.6453505,20.5980501 C13.8026972,21.3463923 12.7413831,21.7864081 11.5878626,21.7864081 C11.3883958,21.7864081 11.1919398,21.7741855 11,21.7473745 C12.0891642,22.5390874 13.380806,23 14.774063,23 C19.3019602,23 21.7794888,18.7678053 21.7794888,15.0986415 C21.7794888,14.9815406 21.7768543,14.8624682 21.771209,14.7433958 C22.2518112,14.3467508 22.6699388,13.8570558 23,13.3015162" id="Fill-14" fill="#FEFEFE"></path>
                        </g>
                    </g>
                </g>
            </g>
        </g>
    </g>
</svg>