<?xml version="1.0" encoding="UTF-8"?>
<svg width="23px" height="21px" viewBox="0 0 23 21" version="1.1" xmlns="http://www.w3.org/2000/svg" xmlns:xlink="http://www.w3.org/1999/xlink">
    <!-- Generator: sketchtool 41.2 (35397) - http://www.bohemiancoding.com/sketch -->
    <title>B3E4997F-0F6F-42F4-90F7-9EC04BD91BB4</title>
    <desc>Created with sketchtool.</desc>
    <defs></defs>
    <g id="Main" stroke="none" stroke-width="1" fill="none" fill-rule="evenodd" stroke-linecap="round" stroke-linejoin="round">
        <g id="Main-Desktop-Categories-1440-" transform="translate(-658.000000, -368.000000)" stroke="#33322D">
            <g id="QuickLinks-Icons" transform="translate(657.000000, 207.000000)">
                <g id="Ceramic-Mug" transform="translate(2.000000, 162.000000)">
                    <g>
                        <path d="M14.801,16.0811 C13.877,17.7381 11.769,18.8811 10.818,18.8811 L7.744,18.8811 L5.272,18.8811 C4.32,18.8811 2.412,17.7381 1.488,16.0811 C1.488,16.0811 0.145,14.3211 0.145,10.0811 L0.145,2.8811 C0.145,1.7761 1.04,0.8811 2.145,0.8811 L8.145,0.8811 L14.145,0.8811 C15.249,0.8811 16.145,1.7761 16.145,2.8811 L16.145,10.0811 C16.145,14.3211 14.801,16.0811 14.801,16.0811 Z" id="Stroke-43" stroke-width="1.8"></path>
                        <path d="M16.1447,3.8809 L18.1447,3.8809 C19.2487,3.8809 20.1447,4.7769 20.1447,5.8809 L20.1447,12.8809 C20.1447,13.9849 19.2487,14.8809 18.1447,14.8809 L16.1447,14.8809" id="Stroke-45" stroke-width="1.8"></path>
                    </g>
                </g>
            </g>
        </g>
    </g>
</svg>