<?xml version="1.0" encoding="UTF-8"?>
<svg width="24px" height="20px" viewBox="0 0 24 20" version="1.1" xmlns="http://www.w3.org/2000/svg" xmlns:xlink="http://www.w3.org/1999/xlink">
    <!-- Generator: sketchtool 41.2 (35397) - http://www.bohemiancoding.com/sketch -->
    <title>96B59253-B01E-41C2-A601-C80C79F1C9F0</title>
    <desc>Created with sketchtool.</desc>
    <defs></defs>
    <g id="Main" stroke="none" stroke-width="1" fill="none" fill-rule="evenodd" stroke-linecap="round" stroke-linejoin="round">
        <g id="Main-Desktop-Categories-1440-" transform="translate(-657.000000, -207.000000)" stroke="#33322D">
            <g id="QuickLinks-Icons" transform="translate(657.000000, 207.000000)">
                <g id="T-shirt" transform="translate(1.000000, 0.000000)">
                    <g>
                        <path d="M11.6447,18.8565 L17.6447,18.8565 L17.6447,9.3745 C17.6447,8.7205 18.2267,8.1925 18.9447,8.1925 L20.2447,8.5925 L21.5447,4.6375 C21.5447,4.6375 19.2027,1.8805 15.2527,1.0835 C15.2527,1.0835 15.2387,5.4375 11.1447,5.4375 C7.0507,5.4375 7.0367,1.0835 7.0367,1.0835 C3.0857,1.8805 0.7447,4.6375 0.7447,4.6375 L2.0447,8.5925 L3.3447,8.1925 C4.0627,8.1925 4.6447,8.7205 4.6447,9.3745 L4.6447,18.8565 L11.6447,18.8565" id="Stroke-5" stroke-width="1.8"></path>
                        <path d="M7.1203,0.9717 C7.1203,0.9717 8.4663,1.5147 10.9463,1.5147 C13.4263,1.5147 14.8963,0.9007 14.8963,0.9007" id="Stroke-7" stroke-width="1.8"></path>
                    </g>
                </g>
            </g>
        </g>
    </g>
</svg>