<svg xmlns="http://www.w3.org/2000/svg" width="22" height="23" viewBox="0 0 22 23">
    <g fill="none" fill-rule="evenodd" stroke="#33322D" stroke-linecap="round" stroke-width="1.8">
        <path stroke-linejoin="round" d="M18.864 21.368H3.425a2 2 0 0 1-1.983-2.262l1.184-9a2 2 0 0 1 1.983-1.738H17.68a2 2 0 0 1 1.983 1.738l1.184 9a2 2 0 0 1-1.983 2.262z"/>
        <path d="M6.843 13.368V5.641c0-1.716.89-3.352 2.364-4.03 3.083-1.42 6.053.958 6.053 4.078v7.68"/>
    </g>
</svg>
