<?xml version="1.0" encoding="UTF-8"?>
<svg width="252px" height="58px" viewBox="0 0 252 58" version="1.1" xmlns="http://www.w3.org/2000/svg" xmlns:xlink="http://www.w3.org/1999/xlink">
    <!-- Generator: sketchtool 41.2 (35397) - http://www.bohemiancoding.com/sketch -->
    <title>3F802C91-F294-4EAC-9493-4752B7F8B642</title>
    <desc>Created with sketchtool.</desc>
    <defs>
        <linearGradient x1="1.11022302e-14%" y1="100%" x2="100%" y2="3.74939946e-31%" id="linearGradient-1">
            <stop stop-color="#64C733" offset="0%"></stop>
            <stop stop-color="#BBFC48" offset="100%"></stop>
        </linearGradient>
        <linearGradient x1="0%" y1="50%" x2="100%" y2="50%" id="linearGradient-2">
            <stop stop-color="#29ABE2" offset="0%"></stop>
            <stop stop-color="#3E879E" offset="100%"></stop>
        </linearGradient>
    </defs>
    <g id="Main" stroke="none" stroke-width="1" fill="none" fill-rule="evenodd">
        <g id="Main-Desktop-1440" transform="translate(-81.000000, -38.000000)">
            <g id="Logo" transform="translate(81.000000, 38.000000)">
                <g>
                    <path d="M0,14.8652175 L0,31.3362376 L35,16.4710201 L35,0 L0,14.8652175 Z M0,41.5289799 L0,58 L35,43.1347825 L35,26.665045 L0,41.5289799 Z" id="Fill-1" fill="url(#linearGradient-1)"></path>
                    <polygon id="Fill-3" fill="url(#linearGradient-2)" points="0 31.3139603 35 43 35 26.68731 0 15"></polygon>
                    <path d="M46.56,34.852 C47.736,35.468 50.564,36.532 54.008,36.532 C59.132,36.532 61.848,33.62 61.848,29.868 C61.848,26.228 59.132,24.912 56.444,23.764 C54.372,22.868 53.588,22.476 53.588,21.608 C53.588,20.992 54.12,20.74 54.652,20.74 C55.38,20.74 56.584,21.076 57.76,22.616 L62.492,19.676 C61.008,17.24 58.628,15.336 54.596,15.336 C50.032,15.336 46.756,17.912 46.756,22.14 C46.756,26.004 49.836,27.208 52.916,28.384 C53.952,28.776 54.792,29.14 54.792,29.952 C54.792,30.596 54.26,31.016 53.392,31.016 C52.244,31.016 50.34,30.568 48.324,29.392 L46.56,34.852 Z M72.124,35.104 L72.404,36 L77.472,36 L77.472,20.852 L71.536,20.852 L71.536,31.268 C71.256,31.352 70.864,31.464 70.416,31.464 C70.108,31.464 69.772,31.352 69.688,30.904 C69.66,30.736 69.66,30.484 69.66,30.12 L69.66,20.852 L63.668,21.44 L63.668,30.848 C63.668,31.38 63.696,32.192 63.78,32.78 C64.088,34.824 65.264,36.28 68.232,36.28 C69.996,36.28 71.284,35.692 72.124,35.104 Z M79.824,20.852 L79.824,41.852 L85.676,41.852 L85.676,35.692 C86.628,36.168 87.524,36.28 88.532,36.28 C92.172,36.28 93.992,32.864 93.992,27.404 C93.992,22.168 91.612,20.572 88.756,20.572 C87.58,20.572 86.432,20.964 85.48,21.636 L85.256,20.852 L79.824,20.852 Z M85.76,25.444 C86.012,25.388 86.264,25.332 86.768,25.332 C87.748,25.332 88.112,25.948 88.112,27.852 C88.112,30.988 87.776,31.94 86.572,31.94 C86.18,31.94 85.9,31.856 85.76,31.772 L85.76,25.444 Z M108.076,29.588 L108.076,27.768 C108.076,23.288 106.144,20.572 101.748,20.572 C98.192,20.572 95,22.868 95,28.188 C95,32.528 96.652,36.28 102.84,36.28 C104.66,36.28 106.592,35.804 107.74,35.216 L107.488,30.372 C105.78,31.324 104.744,31.576 103.4,31.576 C102.532,31.576 101.132,31.296 100.908,29.588 L108.076,29.588 Z M102.728,26.368 L100.936,26.368 C100.936,24.968 101.3,24.576 101.804,24.576 C102.392,24.576 102.728,25.052 102.728,26.368 Z M118.268,20.572 C116.728,20.572 115.832,21.468 115.244,22.28 L114.88,20.852 L109.756,20.852 L109.756,36 L115.692,36 L115.692,26.34 C116.14,26.116 116.868,25.864 117.568,25.864 C118.128,25.864 118.66,26.004 119.136,26.2 L120.228,20.936 C119.724,20.768 119.024,20.572 118.268,20.572 Z M121.124,20.852 L121.124,36 L127.032,36 L127.032,20.852 L121.124,20.852 Z M121.04,16.568 C121.04,18.36 122.3,19.424 124.064,19.424 C125.772,19.424 127.088,18.5 127.088,16.54 C127.088,14.608 125.912,13.6 124.036,13.6 C122.356,13.6 121.04,14.608 121.04,16.568 Z M135.796,36.28 C141.228,36.28 143.188,32.556 143.188,28.188 C143.188,24.016 141.676,20.572 136.076,20.572 C131.036,20.572 128.712,23.932 128.712,28.412 C128.712,32.5 130.42,36.28 135.796,36.28 Z M135.936,31.856 C135.04,31.856 134.732,31.016 134.732,28.44 C134.732,25.948 135.04,25.08 135.992,25.08 C136.888,25.08 137.14,26.032 137.14,28.412 C137.14,30.736 136.804,31.856 135.936,31.856 Z M153.38,20.572 C151.84,20.572 150.944,21.468 150.356,22.28 L149.992,20.852 L144.868,20.852 L144.868,36 L150.804,36 L150.804,26.34 C151.252,26.116 151.98,25.864 152.68,25.864 C153.24,25.864 153.772,26.004 154.248,26.2 L155.34,20.936 C154.836,20.768 154.136,20.572 153.38,20.572 Z M162.732,29.784 L163.964,29.784 C168.92,29.784 171.86,26.76 171.86,22.364 C171.86,18.332 169.004,15.868 164.3,15.868 L156.684,15.868 L156.684,36 L162.732,36 L162.732,29.784 Z M162.732,25.192 L162.732,20.404 L163.572,20.404 C164.776,20.404 165.616,21.02 165.616,22.644 C165.616,24.464 164.888,25.192 163.236,25.192 L162.732,25.192 Z M182.052,20.572 C180.512,20.572 179.616,21.468 179.028,22.28 L178.664,20.852 L173.54,20.852 L173.54,36 L179.476,36 L179.476,26.34 C179.924,26.116 180.652,25.864 181.352,25.864 C181.912,25.864 182.444,26.004 182.92,26.2 L184.012,20.936 C183.508,20.768 182.808,20.572 182.052,20.572 Z M191.18,36.28 C196.612,36.28 198.572,32.556 198.572,28.188 C198.572,24.016 197.06,20.572 191.46,20.572 C186.42,20.572 184.096,23.932 184.096,28.412 C184.096,32.5 185.804,36.28 191.18,36.28 Z M191.32,31.856 C190.424,31.856 190.116,31.016 190.116,28.44 C190.116,25.948 190.424,25.08 191.376,25.08 C192.272,25.08 192.524,26.032 192.524,28.412 C192.524,30.736 192.188,31.856 191.32,31.856 Z M209.492,20.572 C207.784,20.572 206.412,21.188 205.628,21.776 L205.348,20.852 L200.252,20.852 L200.252,36 L206.188,36 L206.188,25.612 C206.468,25.5 206.86,25.388 207.308,25.388 C207.784,25.388 208.064,25.64 208.092,25.976 C208.12,26.256 208.12,26.508 208.12,26.704 L208.12,36 L214.028,36 L214.028,25.612 C214.392,25.472 214.784,25.388 215.232,25.388 C215.68,25.388 215.932,25.556 215.988,26.088 C216.016,26.256 216.016,26.508 216.016,26.704 L216.016,36 L221.924,36 L221.924,25.976 C221.924,25.444 221.924,24.632 221.84,24.072 C221.532,22.028 220.412,20.572 217.444,20.572 C215.708,20.572 214.224,21.132 212.992,21.944 C212.292,21.216 211.172,20.572 209.492,20.572 Z M230.688,36.28 C236.12,36.28 238.08,32.556 238.08,28.188 C238.08,24.016 236.568,20.572 230.968,20.572 C225.928,20.572 223.604,23.932 223.604,28.412 C223.604,32.5 225.312,36.28 230.688,36.28 Z M230.828,31.856 C229.932,31.856 229.624,31.016 229.624,28.44 C229.624,25.948 229.932,25.08 230.884,25.08 C231.78,25.08 232.032,26.032 232.032,28.412 C232.032,30.736 231.696,31.856 230.828,31.856 Z M238.78,34.712 C239.872,35.496 242.504,36.28 245.22,36.28 C249.476,36.28 251.772,34.012 251.772,31.212 C251.772,27.768 248.944,26.984 246.984,26.368 C245.92,26.032 245.108,25.78 245.108,25.164 C245.108,24.772 245.444,24.66 245.78,24.66 C246.368,24.66 247.18,25.192 247.824,25.948 L251.94,23.904 C251.24,22.588 249.504,20.572 245.444,20.572 C242,20.572 239.004,22.252 239.004,25.696 C239.004,29.364 242.028,30.092 244.016,30.596 C244.996,30.848 245.752,31.044 245.752,31.52 C245.752,31.94 245.332,32.08 244.968,32.08 C244.016,32.08 241.636,31.296 240.376,30.176 L238.78,34.712 Z" id="SuperiorPromos" fill="#454E52"></path>
                </g>
            </g>
        </g>
    </g>
</svg>