<?xml version="1.0" encoding="UTF-8"?>
<svg width="48px" height="12px" viewBox="0 0 48 12" version="1.1" xmlns="http://www.w3.org/2000/svg" xmlns:xlink="http://www.w3.org/1999/xlink">
    <!-- Generator: Sketch 46.1 (44463) - http://www.bohemiancoding.com/sketch -->
    <title>9_1</title>
    <desc>Created with Sketch.</desc>
    <defs></defs>
    <g id="Icons" stroke="none" stroke-width="1" fill="none" fill-rule="evenodd">
        <g id="infopages-order-process" transform="translate(-364.000000, -292.000000)">
            <g id="9_1" transform="translate(364.000000, 292.000000)">
                <rect id="Rectangle-7" fill="#B6BFC6" x="0" y="4" width="4" height="4"></rect>
                <rect id="Rectangle-7-Copy" fill="#B6BFC6" x="8" y="4" width="4" height="4"></rect>
                <rect id="Rectangle-7-Copy-2" fill="#B6BFC6" x="16" y="4" width="4" height="4"></rect>
                <rect id="Rectangle-7-Copy-3" fill="#B6BFC6" x="24" y="4" width="4" height="4"></rect>
                <rect id="Rectangle-7-Copy-4" fill="#B6BFC6" x="33" y="4" width="4" height="4"></rect>
                <g id="right-double-chevron" transform="translate(40.000000, 0.000000)"></g>
                <path d="M42.1486582,0 C42.0017101,0 41.8556567,0.0611345847 41.7517741,0.165074924 L40.1642377,1.75261135 C40.060586,1.8564651 40.0000576,2.00185457 40.0000576,2.14860067 C40.0000576,2.29534676 40.0605571,2.44163103 40.1642377,2.54548478 L43.4709895,5.85223657 L40.1642377,9.15901722 C40.0584789,9.26486261 39.9978639,9.41440854 40.0000576,9.5640122 C40.002309,9.70790073 40.062491,9.85008626 40.1642377,9.95189064 L41.7517741,11.5394271 C41.8556567,11.6433674 42.0017101,11.7036072 42.1486582,11.7036072 C42.2956064,11.7036072 42.4416597,11.6433674 42.5455423,11.5394271 L47.8358199,6.24914954 C47.9397602,6.14526693 48,5.99921358 48,5.85226543 C48,5.70531729 47.9397602,5.55926393 47.8358199,5.45538132 L42.5455135,0.165074924 C42.4416309,0.0611057204 42.2955775,0 42.1486582,0 L42.1486582,0 Z" id="Shape" fill="#B6BFC6" fill-rule="nonzero"></path>
            </g>
        </g>
    </g>
</svg>