<?xml version="1.0" encoding="UTF-8"?>
<svg width="22px" height="12px" viewBox="0 0 22 12" version="1.1" xmlns="http://www.w3.org/2000/svg" xmlns:xlink="http://www.w3.org/1999/xlink">
    <!-- Generator: sketchtool 41.2 (35397) - http://www.bohemiancoding.com/sketch -->
    <title>12CCBCEE-BCF6-449E-BE9E-029E8CF07ABA</title>
    <desc>Created with sketchtool.</desc>
    <defs></defs>
    <g id="Main" stroke="none" stroke-width="1" fill="none" fill-rule="evenodd" stroke-linecap="round" stroke-linejoin="round">
        <g id="Main-Desktop-Categories-1440-" transform="translate(-898.000000, -308.000000)" stroke="#33322D">
            <g id="QuickLinks-Icons" transform="translate(657.000000, 207.000000)">
                <g id="Candy" transform="translate(242.000000, 102.000000)">
                    <g>
                        <path d="M19.386,3.5616 C20.625,1.5546 19.049,0.6296 19.049,0.6296 C19.049,0.6296 17.701,1.6526 16.219,2.9486 C15.281,3.7686 14.586,3.5226 14.202,3.2316 C13.508,1.6426 11.926,0.5306 10.081,0.5306 C8.209,0.5306 6.607,1.6736 5.928,3.2996 C5.53,3.5546 4.874,3.7026 4.011,2.9486 C2.53,1.6526 1.182,0.6296 1.182,0.6296 C1.182,0.6296 -0.395,1.5546 0.845,3.5616 C1.182,4.1076 1.182,6.1526 0.845,6.6986 C-0.395,8.7056 1.182,9.6296 1.182,9.6296 C1.182,9.6296 2.53,8.6076 4.011,7.3116 C5.013,6.4366 5.736,6.7756 6.101,7.0866 C6.849,8.5326 8.341,9.5306 10.081,9.5306 C11.766,9.5306 13.216,8.5936 13.988,7.2236 C14.278,6.9086 15.063,6.3006 16.219,7.3116 C17.701,8.6076 19.049,9.6296 19.049,9.6296 C19.049,9.6296 20.625,8.7056 19.386,6.6986 C19.049,6.1526 19.049,4.1076 19.386,3.5616 Z" id="Stroke-109" stroke-width="1.5"></path>
                        <path d="M16.4699,5.2852 L17.6929,5.2852" id="Stroke-110" stroke-width="1.5"></path>
                        <path d="M2.3586,4.6856 L3.5816,4.6856" id="Stroke-111" stroke-width="1.5"></path>
                        <path d="M7.3586,5.2637 C7.3586,5.2637 9.9146,9.7077 12.8036,5.2637" id="Stroke-112" stroke-width="1.5"></path>
                    </g>
                </g>
            </g>
        </g>
    </g>
</svg>