<?xml version="1.0" encoding="UTF-8"?>
<svg width="25px" height="26px" viewBox="0 0 25 26" version="1.1" xmlns="http://www.w3.org/2000/svg" xmlns:xlink="http://www.w3.org/1999/xlink">
    <!-- Generator: sketchtool 41.2 (35397) - http://www.bohemiancoding.com/sketch -->
    <title>40C54686-0D83-438D-AB02-30C687E501C3</title>
    <desc>Created with sketchtool.</desc>
    <defs></defs>
    <g id="Main" stroke="none" stroke-width="1" fill="none" fill-rule="evenodd">
        <g id="Main-Desktop-Categories-1440-" transform="translate(-657.000000, -301.000000)">
            <g id="QuickLinks-Icons" transform="translate(657.000000, 207.000000)">
                <g id="KeyChain" transform="translate(0.000000, 95.000000)">
                    <g>
                        <path d="M22.3752,20.4815 L16.7332,23.6795 C15.7722,24.2245 14.5522,23.8875 14.0072,22.9265 L7.1472,10.8255 C6.6032,9.8645 6.9402,8.6435 7.9012,8.0995 L13.5422,4.9015 C14.5032,4.3565 15.7242,4.6935 16.2692,5.6545 L23.1282,17.7555 C23.6732,18.7165 23.3362,19.9375 22.3752,20.4815" id="Fill-33" fill="#FFFFFF"></path>
                        <path d="M22.3752,20.4815 L16.7332,23.6795 C15.7722,24.2245 14.5522,23.8875 14.0072,22.9265 L7.1472,10.8255 C6.6032,9.8645 6.9402,8.6435 7.9012,8.0995 L13.5422,4.9015 C14.5032,4.3565 15.7242,4.6935 16.2692,5.6545 L23.1282,17.7555 C23.6732,18.7165 23.3362,19.9375 22.3752,20.4815 Z" id="Stroke-35" stroke="#33322D" stroke-width="1.8" stroke-linecap="round" stroke-linejoin="round"></path>
                        <path d="M7.9631,16.4034 C10.0611,16.5814 12.2571,16.0034 13.4201,14.0784 C15.0511,11.3774 14.5581,7.9384 11.8571,6.3064 C9.1551,4.6744 6.0161,5.6164 4.3851,8.3174 C3.2131,10.2574 3.4111,12.5134 4.5721,14.2934 L2.9101,16.3304 L3.5401,19.0844 L0.9001,19.9334 L2.0031,22.8974 L3.5511,23.8334 L7.9631,16.4034 Z" id="Fill-37" fill="#FFFFFF"></path>
                        <path d="M7.9631,16.4034 C10.0611,16.5814 12.2571,16.0034 13.4201,14.0784 C15.0511,11.3774 14.5581,7.9384 11.8571,6.3064 C9.1551,4.6744 6.0161,5.6164 4.3851,8.3174 C3.2131,10.2574 3.4111,12.5134 4.5721,14.2934 L2.9101,16.3304 L3.5401,19.0844 L0.9001,19.9334 L2.0031,22.8974 L3.5511,23.8334 L7.9631,16.4034 Z" id="Stroke-39" stroke="#33322D" stroke-width="1.8" stroke-linecap="round" stroke-linejoin="round"></path>
                        <path d="M9.885,8.5459 C8.156,8.0049 6.902,6.3919 6.9,4.4839 C6.897,2.1319 8.802,0.2219 11.156,0.2199 C13.509,0.2169 15.418,2.1219 15.42,4.4759" id="Stroke-41" stroke="#33322D" stroke-width="1.8" stroke-linecap="round" stroke-linejoin="round"></path>
                    </g>
                </g>
            </g>
        </g>
    </g>
</svg>