<?xml version="1.0" encoding="UTF-8"?>
<svg width="21px" height="20px" viewBox="0 0 21 20" version="1.1" xmlns="http://www.w3.org/2000/svg" xmlns:xlink="http://www.w3.org/1999/xlink">
    <!-- Generator: sketchtool 41.2 (35397) - http://www.bohemiancoding.com/sketch -->
    <title>5093EECD-F423-4F4D-8F4F-1FF33895ECFB</title>
    <desc>Created with sketchtool.</desc>
    <defs></defs>
    <g id="Main" stroke="none" stroke-width="1" fill="none" fill-rule="evenodd">
        <g id="Main-Desktop-Categories-1440-" transform="translate(-899.000000, -369.000000)">
            <g id="QuickLinks-Icons" transform="translate(657.000000, 207.000000)">
                <g id="Sticky-Notes" transform="translate(242.000000, 163.000000)">
                    <g>
                        <polygon id="Fill-131" fill="#FFFFFF" points="0.9153 17.6807 16.3153 17.6807 19.3153 15.2207 3.3153 15.2207 3.3153 0.0807 0.9153 2.9417"></polygon>
                        <polygon id="Stroke-132" stroke="#33322D" stroke-width="1.5" stroke-linecap="round" stroke-linejoin="round" points="0.9153 17.6807 16.3153 17.6807 19.3153 15.2207 3.3153 15.2207 3.3153 0.0807 0.9153 2.9417"></polygon>
                        <polygon id="Fill-133" fill="#FFFFFF" points="12.8059 8.7119 11.3159 15.2209 3.3159 15.2209 3.3159 0.0809 19.3159 0.0809 19.3159 7.6509"></polygon>
                        <polygon id="Stroke-134" stroke="#33322D" stroke-width="1.4" stroke-linecap="round" stroke-linejoin="round" points="12.8059 8.7119 11.3159 15.2209 3.3159 15.2209 3.3159 0.0809 19.3159 0.0809 19.3159 7.6509"></polygon>
                        <path d="M19.3156,7.6514 L19.3156,15.2204" id="Stroke-135" stroke="#33322D" stroke-width="1.5" stroke-linecap="round" stroke-linejoin="round"></path>
                        <path d="M11.3156,15.2207 L19.3156,7.6517" id="Stroke-136" stroke="#33322D" stroke-width="1.5" stroke-linecap="round" stroke-linejoin="round"></path>
                    </g>
                </g>
            </g>
        </g>
    </g>
</svg>