<?xml version="1.0" encoding="UTF-8"?>
<svg width="91px" height="81px" viewBox="0 0 91 81" version="1.1" xmlns="http://www.w3.org/2000/svg" xmlns:xlink="http://www.w3.org/1999/xlink">
    <!-- Generator: Sketch 46.1 (44463) - http://www.bohemiancoding.com/sketch -->
    <title>1_5</title>
    <desc>Created with Sketch.</desc>
    <defs></defs>
    <g id="Icons" stroke="none" stroke-width="1" fill="none" fill-rule="evenodd">
        <g id="infopages-Testimonials" transform="translate(-283.000000, -394.000000)" stroke="#5195DB">
            <g id="1_5" transform="translate(285.000000, 396.000000)">
                <rect id="Rectangle-2-Copy" stroke-width="3" x="50.5" y="14.5" width="37" height="41" rx="11"></rect>
                <rect id="Rectangle-2" stroke-width="3" x="59.5" y="20.5" width="21" height="29" rx="7"></rect>
                <path d="M70.9955822,34.2221228 C70.9955822,53.121291 55.100747,77 35.4977911,77 C15.8904175,77 0,53.1215147 0,34.2221228 L0,8.5555307 C0,4.32049379 4.61957237,2.84217094e-14 8.87433152,2.84217094e-14 L62.125436,2.84217094e-14 C66.3804276,2.84217094e-14 71,4.18783429 71,8.5555307 L71,34.2221228 L70.9955822,34.2221228 Z" id="Shape" stroke-width="4" fill="#FFFFFF" fill-rule="nonzero"></path>
            </g>
        </g>
    </g>
</svg>