<?xml version="1.0" encoding="UTF-8"?>
<svg width="120px" height="110px" viewBox="0 0 120 110" version="1.1" xmlns="http://www.w3.org/2000/svg" xmlns:xlink="http://www.w3.org/1999/xlink">
    <!-- Generator: Sketch 46.1 (44463) - http://www.bohemiancoding.com/sketch -->
    <title>4</title>
    <desc>Created with Sketch.</desc>
    <defs></defs>
    <g id="Icons" stroke="none" stroke-width="1" fill="none" fill-rule="evenodd">
        <g id="infopages-Guarantee" transform="translate(-359.000000, -440.000000)">
            <g id="4" transform="translate(361.000000, 442.000000)">
                <path d="M97.7917942,28.7090909 L79.4629516,28.7090909 L79.4629516,19 L24.6785058,19 C21.5260257,19 19,21.5284091 19,24.7040909 L19,85.8511364 C19,89.0065909 21.5260257,91.535 24.6785058,91.535 L31.2663809,91.535 C31.084507,92.425 31.0036742,93.3352273 31.0036742,94.2859091 C31.0036742,101.871136 37.1065524,108 44.7048377,108 C52.2829149,108 58.6080833,101.668864 58.4060012,94.2859091 C58.4060012,93.4161364 58.3251684,92.5665909 58.1635028,91.7575 L83.2823025,91.7575 C83.1206369,92.5868182 83.039804,93.4161364 83.039804,94.2859091 C83.039804,101.871136 89.1426822,108 96.7409675,108 C104.339253,108 110.442131,101.668864 110.442131,94.2859091 C110.442131,93.4161364 110.361298,92.5665909 110.199633,91.7575 L112.321494,91.7575 C115.473974,91.7575 118,89.0065909 118,85.8511364 L118,58.0184091 L97.7917942,28.7090909 Z M95.6901408,32.7140909 L112.119412,56.5418182 L79.6852419,56.5418182 L79.6852419,32.7140909 L95.6901408,32.7140909 Z M44.7048377,103.7725 C39.430496,103.7725 35.004899,99.3427273 35.004899,94.0634091 C35.004899,88.7840909 39.430496,84.3543182 44.7048377,84.3543182 C50.1812615,84.3543182 54.4047765,88.7840909 54.4047765,94.0634091 C54.3845683,99.3427273 49.9791794,103.7725 44.7048377,103.7725 Z M56.6276791,87.5502273 C54.2835273,83.3834091 49.837722,80.5920455 44.7048377,80.5920455 C39.6527863,80.5920455 35.2676056,83.3025 32.9032456,87.3479545 L24.6785058,87.3479545 C23.8297612,87.3479545 23.2033068,86.7209091 23.2033068,85.8713636 L23.2033068,24.7040909 C23.2033068,23.8545455 23.8297612,23.2275 24.6785058,23.2275 L75.4617269,23.2275 L75.4617269,87.5502273 L56.6276791,87.5502273 Z M96.7409675,103.7725 C91.4666258,103.7725 87.0410288,99.3427273 87.0410288,94.0634091 C87.0410288,88.7840909 91.4666258,84.3543182 96.7409675,84.3543182 C102.015309,84.3543182 106.440906,88.7840909 106.440906,94.0634091 C106.440906,99.3427273 102.015309,103.7725 96.7409675,103.7725 Z M112.341702,87.5502273 L108.684017,87.5502273 C106.339865,83.3834091 101.89406,80.5920455 96.7611758,80.5920455 C91.6282915,80.5920455 87.1824862,83.3834091 84.8383344,87.5502273 L79.7054501,87.5502273 L79.7054501,60.7490909 L114.039192,60.7490909 L114.039192,85.8511364 C114.018983,86.7006818 113.170239,87.5502273 112.341702,87.5502273 L112.341702,87.5502273 Z" id="Shape" fill="#5195DB" fill-rule="nonzero"></path>
                <circle id="Oval-2" stroke="#5195DB" stroke-width="4" fill="#FFFFFF" cx="26.5" cy="26.5" r="26.5"></circle>
                <path d="M33.2951115,35.3983277 C32.1594811,36.6751638 30.5196068,37.4266215 28.3751282,37.6526102 L28.3751282,40.9265537 L25.641734,40.9265537 L25.641734,37.6695141 C22.0658596,37.3023277 19.8537517,35.2175367 19,31.4209266 L23.2268285,30.3163842 C23.6185372,32.7033672 24.9147646,33.8955028 27.1155108,33.8955028 C28.1440165,33.8955028 28.9048907,33.6413107 29.3895671,33.1299435 C29.8742434,32.6185763 30.1165365,32.0028023 30.1165365,31.2796384 C30.1165365,30.5310734 29.8741532,29.963209 29.3895671,29.5790282 C28.9048907,29.1921356 27.825618,28.7032768 26.1546343,28.1101017 C24.6527238,27.5876158 23.4775978,27.0733559 22.6322321,26.5593672 C21.7868664,26.0508927 21.0993023,25.336226 20.5723351,24.4180791 C20.045368,23.4971299 19.7805318,22.4236836 19.7805318,21.2033446 C19.7805318,19.6016271 20.2539366,18.1581017 21.1951555,16.875661 C22.1363744,15.5960226 23.6185372,14.8134689 25.6418242,14.5281808 L25.6418242,12 L28.3752184,12 L28.3752184,14.5282712 C31.4298065,14.895548 33.4080073,16.6271638 34.3068452,19.7260113 L30.5421499,21.2740339 C29.8067043,19.1497401 28.673779,18.0875932 27.1353487,18.0875932 C26.3632029,18.0875932 25.7432681,18.3248814 25.2783395,18.7994576 C24.8105254,19.2740339 24.5767085,19.8503051 24.5767085,20.5254689 C24.5767085,21.2147345 24.8021393,21.7430056 25.253001,22.1130847 C25.7010674,22.4803616 26.6676247,22.9351412 28.1441968,23.4803164 C29.767299,24.0735819 31.0409833,24.635661 31.9624545,25.1639322 C32.886721,25.6922034 33.6221666,26.4238644 34.1744722,27.3532203 C34.7239825,28.2854689 35,29.3731073 35,30.6188475 C35,32.5310734 34.430742,34.1242938 33.2951115,35.3983277 Z" id="Shape" fill="#5195DB" fill-rule="nonzero"></path>
            </g>
        </g>
    </g>
</svg>