<?xml version="1.0" encoding="UTF-8"?>
<svg width="98px" height="96px" viewBox="0 0 98 96" version="1.1" xmlns="http://www.w3.org/2000/svg" xmlns:xlink="http://www.w3.org/1999/xlink">
    <!-- Generator: Sketch 46.1 (44463) - http://www.bohemiancoding.com/sketch -->
    <title>4_2</title>
    <desc>Created with Sketch.</desc>
    <defs>
        <rect id="path-1" x="6" y="7" width="86" height="86"></rect>
        <mask id="mask-2" maskContentUnits="userSpaceOnUse" maskUnits="objectBoundingBox" x="0" y="0" width="86" height="86" fill="white">
            <use xlink:href="#path-1"></use>
        </mask>
        <rect id="path-3" x="0" y="2" width="9" height="9"></rect>
        <rect id="path-4" x="0" y="89" width="9" height="9"></rect>
        <rect id="path-5" x="89" y="2" width="9" height="9"></rect>
        <rect id="path-6" x="89" y="89" width="9" height="9"></rect>
    </defs>
    <g id="Icons" stroke="none" stroke-width="1" fill="none" fill-rule="evenodd">
        <g id="infopages-artwork" transform="translate(-1050.000000, -418.000000)">
            <g id="4_2" transform="translate(1050.000000, 416.000000)">
                <use id="Rectangle-4" stroke="#2E8DD6" mask="url(#mask-2)" stroke-width="6" fill="#FFFFFF" stroke-dasharray="2" xlink:href="#path-1"></use>
                <text id="A" font-family="ArialRoundedMTBold, Arial Rounded MT Bold" font-size="85" font-weight="normal" fill="#5195DB">
                    <tspan x="20" y="80">A</tspan>
                </text>
                <g id="Rectangle-5">
                    <use fill="#FFFFFF" fill-rule="evenodd" xlink:href="#path-3"></use>
                    <rect stroke="#0085D1" stroke-width="2" x="1" y="3" width="7" height="7"></rect>
                </g>
                <g id="Rectangle-5-Copy-2">
                    <use fill="#FFFFFF" fill-rule="evenodd" xlink:href="#path-4"></use>
                    <rect stroke="#0085D1" stroke-width="2" x="1" y="90" width="7" height="7"></rect>
                </g>
                <g id="Rectangle-5-Copy">
                    <use fill="#FFFFFF" fill-rule="evenodd" xlink:href="#path-5"></use>
                    <rect stroke="#0085D1" stroke-width="2" x="90" y="3" width="7" height="7"></rect>
                </g>
                <g id="Rectangle-5-Copy-3">
                    <use fill="#FFFFFF" fill-rule="evenodd" xlink:href="#path-6"></use>
                    <rect stroke="#0085D1" stroke-width="2" x="90" y="90" width="7" height="7"></rect>
                </g>
            </g>
        </g>
    </g>
</svg>